[
  {
    "id": 1,
    "contact_name": "Addison Boyer",
    "email": "Addison.Boyer@UMontana.Edu",
    "address": "107 Pantzer Hall",
    "city": "Missoula",
    "zip_code": 59801,
    "state_id": 30,
    "presenters": [
      {
        "id": 2,
        "contact_type_id": 10
      }
    ]

  },
  {
    "id": 2,
    "contact_name": "Treyton Edinger",
    "email": "Treyton.Edinger@UMontana.Edu",
    "address": "420 Easy Street",
    "city": "Missoula",
    "zip_code": 59801,
    "state_id": 30,
    "presenters": [
      {
        "id": 3,
        "contact_type_id": 10
      }
    ]
  },
  {
    "id": 3,
    "contact_name": "Patrick McGill",
    "email": "Patrick.McGill@UMontana.Edu",
    "address": "710 Addison Street",
    "city": "Bozeman",
    "zip_code": 59715,
    "state_id": 30,
    "presenters": [
      {
        "id": 4,
        "contact_type_id": 10
      }
    ]
  },
  {
    "id": 4,
    "contact_name": "Lee Curran",
    "email": "Lee.Curran@UMontana.Edu",
    "address": "430 Dore Lane",
    "city": "Lolo",
    "zip_code": 59847,
    "state_id": 30,
    "presenters": [
      {
        "id": 5,
        "contact_type_id": 10
      }
    ]
  },
  {
    "id": 5,
    "contact_name": "Holden Tarver",
    "email": "Holden.Tarver@UMontana.Edu",
    "address": "800 South Avenue",
    "city": "Missoula",
    "zip_code": 59801,
    "state_id": 30,
    "presenters": [
      {
        "id": 1,
        "contact_type_id": 10
      }
    ]
  }
]